Sensor_id,Parameter,lower_threshold,middle_threshold,upper_threshold
BLECB_0C_16_62_25_39,Temperature,10,,30
Z0013a200415b5f3e,Temperature,30,,50
Z0013a200415b5f3e,Humidity,60,,80
Z0013a200415b5f3e,Noise,2,,3
Z0013a200415b5f3e,Temperature,30,,50
Z0013a200415b5f3e,Humidity,60,,80
Z0013a200415b5f3e,Noise,2,,3
BLE9C_1D_58_8A_80_89,rssi_value,-45,,0
BLEFE_EC_84_23_8A_68,rssi_value,-45,,0
